[
  {
    "userId": 1,
    "id": 1,
    "title": "User Can Add a Todo",
    "completed": false
  },
  {
    "userId": 1,
    "id": 2,
    "title": "User can mark a todo as complete",
    "completed": false
  },
  {
    "userId": 1,
    "id": 3,
    "title": "User Can Delete a Todo",
    "completed": false
  },
  {
    "userId": 1,
    "id": 4,
    "title": "User Can Delete all Todos Marked as Complete",
    "completed": false
  },
  {
    "userId": 1,
    "id": 5,
    "title": "Submit the Repo, and add the Graders",
    "completed": false
  }
]
